simulation/qsim/exp1.msim.vcd
$comment
	File created using the following command:
		vcd file exp1.msim.vcd -direction
$end
$date
	Sat Apr 08 11:03:35 2023
$end
$version
	ModelSim Version 10.1d
$end
$timescale
	1ps
$end
$scope module full_adder_4_vlg_vec_tst $end
$var reg 4 ! a [3:0] $end
$var reg 4 " b [3:0] $end
$var reg 1 # c0 $end
$var wire 1 $ c3 $end
$var wire 1 % codeout [7] $end
$var wire 1 & codeout [6] $end
$var wire 1 ' codeout [5] $end
$var wire 1 ( codeout [4] $end
$var wire 1 ) codeout [3] $end
$var wire 1 * codeout [2] $end
$var wire 1 + codeout [1] $end
$var wire 1 , codeout [0] $end
$var wire 1 - sum [3] $end
$var wire 1 . sum [2] $end
$var wire 1 / sum [1] $end
$var wire 1 0 sum [0] $end
$var wire 1 1 sampler $end
$scope module i1 $end
$var wire 1 2 gnd $end
$var wire 1 3 vcc $end
$var wire 1 4 unknown $end
$var tri1 1 5 devclrn $end
$var tri1 1 6 devpor $end
$var tri1 1 7 devoe $end
$var wire 1 8 c3~output_o $end
$var wire 1 9 codeout[7]~output_o $end
$var wire 1 : codeout[6]~output_o $end
$var wire 1 ; codeout[5]~output_o $end
$var wire 1 < codeout[4]~output_o $end
$var wire 1 = codeout[3]~output_o $end
$var wire 1 > codeout[2]~output_o $end
$var wire 1 ? codeout[1]~output_o $end
$var wire 1 @ codeout[0]~output_o $end
$var wire 1 A sum[3]~output_o $end
$var wire 1 B sum[2]~output_o $end
$var wire 1 C sum[1]~output_o $end
$var wire 1 D sum[0]~output_o $end
$var wire 1 E a[3]~input_o $end
$var wire 1 F a[2]~input_o $end
$var wire 1 G b[1]~input_o $end
$var wire 1 H b[0]~input_o $end
$var wire 1 I c0~input_o $end
$var wire 1 J a[0]~input_o $end
$var wire 1 K inst|c1~1_combout $end
$var wire 1 L a[1]~input_o $end
$var wire 1 M inst|c1~0_combout $end
$var wire 1 N inst1|c1~0_combout $end
$var wire 1 O b[2]~input_o $end
$var wire 1 P inst2|c1~1_combout $end
$var wire 1 Q b[3]~input_o $end
$var wire 1 R inst2|c1~0_combout $end
$var wire 1 S inst3|c1~0_combout $end
$var wire 1 T inst1|ha2|s~combout $end
$var wire 1 U inst3|ha2|s~combout $end
$var wire 1 V inst2|ha2|s~0_combout $end
$var wire 1 W inst|ha2|s~0_combout $end
$var wire 1 X inst5|WideOr0~0_combout $end
$var wire 1 Y inst5|WideOr1~0_combout $end
$var wire 1 Z inst5|WideOr2~0_combout $end
$var wire 1 [ inst5|WideOr3~0_combout $end
$var wire 1 \ inst5|WideOr4~0_combout $end
$var wire 1 ] inst5|WideOr5~0_combout $end
$var wire 1 ^ inst5|WideOr6~0_combout $end
$upscope $end
$upscope $end
$enddefinitions $end
#0
$dumpvars
b1110 !
b1110 "
1#
1$
0,
1+
1*
1)
1(
0'
1&
0%
10
0/
1.
1-
x1
02
13
x4
15
16
17
18
09
1:
0;
1<
1=
1>
1?
0@
1A
1B
0C
1D
1E
1F
1G
0H
1I
0J
0K
1L
0M
1N
1O
1P
1Q
1R
1S
0T
1U
1V
1W
1X
1Y
0Z
0[
0\
0]
1^
$end
#10000
b110 !
b10 !
b110 "
b10 "
0#
0O
0Q
0F
0E
0I
01
0R
0P
0S
0W
0^
1]
1\
0Y
08
0D
0$
00
0U
0X
1^
0]
0\
1[
1Z
1@
0?
0>
1;
0A
0:
1,
0+
0*
1'
0-
0&
1X
0@
1?
1>
0=
0<
1:
0,
1+
1*
0)
0(
1&
#20000
b0 !
b1 !
b0 "
b1 "
1H
0G
1J
0L
11
1M
0N
1T
0V
0^
1\
0[
0Z
1Y
1C
0B
1/
0.
1@
0>
1=
1<
0;
1,
0*
1)
1(
0'
#30000
b11 !
b11 "
1G
1L
01
1N
1V
1]
0\
0Y
1B
1.
0?
1>
1;
0+
1*
1'
#40000
b111 !
b111 "
b101 !
b101 "
0G
1O
0L
1F
11
0N
1R
1P
0P
0V
1U
0]
1[
0B
1A
0.
1-
1?
0=
1+
0)
#60000
b1101 !
b1101 "
1#
b1111 !
b1111 "
1G
1Q
1L
1E
1I
01
1N
1K
1S
1W
1P
1^
1]
0[
18
1D
1$
10
1V
0^
1\
1[
0@
0?
1=
1B
0,
0+
1)
1.
1@
0>
0=
1,
0*
0)
#70000
b1110 !
b1110 "
b1010 !
b1010 "
b10 !
b10 "
0#
b0 !
b0 "
0H
0G
0O
0Q
0J
0L
0F
0E
0I
11
0M
0K
0N
0R
0P
0W
0S
0[
0D
08
00
0$
0T
0V
0U
0]
0\
1=
0C
0B
0A
1)
0/
0.
0-
0X
1?
1>
0:
1+
1*
0&
#80000
b1 !
b1 "
b101 !
b101 "
1H
1O
1J
1F
01
1M
1R
1T
1U
1[
1C
1A
1/
1-
1X
0=
1:
0)
1&
#90000
b1 !
b1 "
0O
0F
11
0R
0U
1\
0[
1Y
0A
0-
0>
1=
0;
0*
1)
0'
#100000
b1001 !
b1001 "
1#
b1011 !
b1011 "
b1010 !
b1010 "
0H
1G
1Q
0J
1L
1E
1I
01
0M
1N
1W
1S
0\
1Z
1D
18
10
1$
0T
1V
1]
0Y
1>
0<
0C
1B
1*
0(
0/
1.
0?
1;
0+
1'
#110000
b1110 !
b1110 "
b110 !
b110 "
0#
1O
0Q
1F
0E
0I
11
1R
1P
0S
0W
1^
0]
1[
08
0D
0$
00
1U
0^
1]
1\
0[
0Z
0@
1?
0=
1A
0,
1+
0)
1-
0X
1@
0?
0>
1=
1<
0:
1,
0+
0*
1)
1(
0&
#120000
b1110 !
b1110 "
1#
1Q
1E
1I
01
1S
1W
1^
0]
0\
1Y
18
1D
1$
10
1X
0@
1?
1>
0;
1:
0,
1+
1*
0'
1&
#130000
b1111 !
b1111 "
1H
1J
11
1M
1K
1T
0^
1]
1\
1[
0Y
1C
1/
1@
0?
0>
0=
1;
1,
0+
0*
0)
1'
#140000
b1101 !
b1101 "
b1001 !
b1001 "
0G
0O
0L
0F
01
0N
0R
0P
0V
0U
0]
0\
0[
1Z
1Y
0B
0A
0.
0-
1?
1>
1=
0<
0;
1+
1*
1)
0(
0'
#150000
b1000 !
b1000 "
b1100 !
b1100 "
0H
1O
0J
1F
11
0M
0K
1R
0T
1U
0Y
0C
1A
0/
1-
1;
1'
#160000
b100 !
b100 "
0#
0Q
0E
0I
01
0S
0W
0Z
08
0D
0$
00
1<
1(
#170000
b110 !
b110 "
1G
1L
11
1N
1P
1V
1]
1\
1B
1.
0X
0?
0>
0:
0+
0*
0&
#180000
b111 !
b111 "
b101 !
b101 "
1H
0G
1J
0L
01
1M
0N
0P
1T
0V
0]
0\
1[
1C
0B
1/
0.
1X
1?
1>
0=
1:
1+
1*
0)
1&
#190000
b100 !
b100 "
b110 !
b110 "
0H
1G
0J
1L
11
0M
1N
1P
0T
1V
1]
1\
0[
0C
1B
0/
1.
0X
0?
0>
1=
0:
0+
0*
1)
0&
#200000
b10 !
b10 "
b1010 !
b1010 "
1#
b1011 !
b1011 "
b1001 !
b1001 "
1H
0G
0O
1Q
1J
0L
0F
1E
1I
01
1M
1K
0N
0R
0P
1W
1S
1^
0]
0\
1Y
1D
18
10
1$
1T
0V
0U
1X
0^
1Z
0@
1?
1>
0;
1C
0B
0A
1:
0,
1+
1*
0'
1/
0.
0-
1&
1@
0<
1,
0(
#210000
b1101 !
b1101 "
b1100 !
b1100 "
b1110 !
b1110 "
0H
1G
1O
0J
1L
1F
11
0M
0K
1N
1R
1P
0T
1V
1U
1^
0Z
0C
1B
1A
0/
1.
1-
0@
1<
0,
1(
#220000
b1010 !
b1010 "
b1000 !
b1000 "
0G
0O
0L
0F
01
0N
0R
0P
0V
0U
1[
1Z
0B
0A
0.
0-
0X
0=
0<
0:
0)
0(
0&
#230000
b1100 !
b1100 "
b1110 !
b1110 "
1G
1O
1L
1F
11
1N
1R
1P
1V
1U
0[
0Z
1B
1A
1.
1-
1X
1=
1<
1:
1)
1(
1&
#240000
b110 !
b110 "
0#
b111 !
b111 "
1H
0Q
1J
0E
0I
01
1M
0W
0S
0^
1]
1\
0Y
0D
08
00
0$
1T
0X
1@
0?
0>
1;
1C
0:
1,
0+
0*
1'
1/
0&
1X
1:
1&
#250000
b11 !
b11 "
b1 !
b1 "
b1001 !
b1001 "
1#
b1000 !
b1000 "
0H
0G
0O
1Q
0J
0L
0F
1E
1I
11
0M
0N
0R
0P
1W
1S
1[
1D
18
10
1$
0T
0V
0U
1^
0]
0\
1Z
1Y
0=
0C
0B
0A
0)
0/
0.
0-
0X
0@
1?
1>
0<
0;
0:
0,
1+
1*
0(
0'
0&
#260000
b1100 !
b1100 "
b1110 !
b1110 "
b110 !
b110 "
0#
1G
1O
0Q
1L
1F
0E
0I
01
1N
1R
0S
0W
1P
0^
0[
0Z
0Y
08
0D
0$
00
1V
1U
1]
1\
1@
1=
1<
1;
1B
1A
1,
1)
1(
1'
1.
1-
0?
0>
0+
0*
#270000
b100 !
b100 "
0G
0L
11
0N
0P
0V
0]
0\
0B
0.
1X
1?
1>
1:
1+
1*
1&
#280000
b101 !
b101 "
b1 !
b1 "
b1001 !
b1001 "
1#
1H
0O
1Q
1J
0F
1E
1I
01
1M
1K
0R
1W
1S
1Z
1D
18
10
1$
1T
0U
1Y
0<
1C
0A
0(
1/
0-
0;
0'
#290000
b1011 !
b1011 "
b1111 !
b1111 "
b111 !
b111 "
0#
1G
1O
0Q
1L
1F
0E
0I
11
1N
1R
0K
0S
0W
1P
1\
0Z
08
0D
0$
00
1V
1U
1]
0Y
0>
1<
1B
1A
0*
1(
1.
1-
0?
1;
0+
1'
#300000
b110 !
b110 "
b100 !
b100 "
0H
0G
0J
0L
01
0M
0N
0P
0T
0V
0]
0\
0C
0B
0/
0.
1?
1>
1+
1*
#310000
b0 !
b0 "
b1 !
b1 "
1H
0O
1J
0F
11
1M
0R
1T
0U
1\
1Y
1C
0A
1/
0-
0>
0;
0*
0'
#320000
b11 !
b11 "
b111 !
b111 "
b110 !
b110 "
0H
1G
1O
0J
1L
1F
01
0M
1N
1R
1P
0T
1V
1U
1]
0Y
0C
1B
1A
0/
1.
1-
0X
0?
1;
0:
0+
1'
0&
#330000
b10 !
b10 "
b11 !
b11 "
1H
0O
1J
0F
11
1M
0R
0P
1T
0U
0\
1C
0A
1/
0-
1X
1>
1:
1*
1&
#340000
b111 !
b111 "
b110 !
b110 "
0H
1O
0J
1F
01
0M
1R
1P
0T
1U
1\
0C
1A
0/
1-
0X
0>
0:
0*
0&
#350000
b1110 !
b1110 "
1#
b1111 !
b1111 "
1H
1Q
1J
1E
1I
11
1M
1K
1W
1S
1^
0]
0\
1Y
1D
18
10
1$
1T
1X
0^
1]
1\
1[
0Y
0@
1?
1>
0;
1C
1:
0,
1+
1*
0'
1/
1&
1@
0?
0>
0=
1;
1,
0+
0*
0)
1'
#360000
b1101 !
b1101 "
b1001 !
b1001 "
b1 !
b1 "
0#
0G
0O
0Q
0L
0F
0E
0I
01
0N
0R
0P
0K
0S
0W
0[
08
0D
0$
00
0V
0U
0]
1Y
1=
0B
0A
1)
0.
0-
1?
0;
1+
0'
#370000
b11 !
b11 "
b111 !
b111 "
b1111 !
b1111 "
1#
1G
1O
1Q
1L
1F
1E
1I
11
1N
1R
1K
1S
1W
1P
0\
1Z
18
1D
1$
10
1V
1U
1]
1\
1[
0Z
0Y
1>
0<
1B
1A
1*
0(
1.
1-
0?
0>
0=
1<
1;
0+
0*
0)
1(
1'
#380000
b1110 !
b1110 "
b110 !
b110 "
0#
0H
0Q
0J
0E
0I
01
0M
0K
0W
0S
0[
0D
08
00
0$
0T
1=
0C
1)
0/
0X
0:
0&
#390000
b111 !
b111 "
b1111 !
b1111 "
1#
1H
1Q
1J
1E
1I
11
1M
1K
1W
1S
1^
0]
0\
1Y
1D
18
10
1$
1T
1X
0^
1]
1\
1[
0Y
0@
1?
1>
0;
1C
1:
0,
1+
1*
0'
1/
1&
1@
0?
0>
0=
1;
1,
0+
0*
0)
1'
#400000
b1101 !
b1101 "
b101 !
b101 "
0#
0G
0Q
0L
0E
0I
01
0N
0K
0S
0W
0P
0[
08
0D
0$
00
0V
0]
0\
1[
1=
0B
1)
0.
1?
1>
0=
1+
1*
0)
#410000
b1 !
b1 "
b0 !
b0 "
b10 !
b10 "
0H
1G
0O
0J
1L
0F
11
0M
1N
0R
0T
1V
0U
1^
1Z
0C
1B
0A
0/
1.
0-
0@
0<
0,
0(
#420000
b1010 !
b1010 "
1#
b1000 !
b1000 "
0G
1Q
0L
1E
1I
01
0N
1S
1W
0^
1]
0[
18
1D
1$
10
0V
1^
0]
1[
1Y
1@
0?
1=
0B
1,
0+
1)
0.
0X
0@
1?
0=
0;
0:
0,
1+
0)
0'
0&
#430000
b1010 !
b1010 "
1G
1L
11
1N
1V
0^
1]
0[
0Y
1B
1.
1X
1@
0?
1=
1;
1:
1,
0+
1)
1'
1&
#440000
b1011 !
b1011 "
1H
1J
01
1M
1K
1T
0]
1[
1Y
1C
1/
0X
1?
0=
0;
0:
1+
0)
0'
0&
#450000
b1111 !
b1111 "
b111 !
b111 "
0#
b101 !
b101 "
b100 !
b100 "
0H
0G
1O
0Q
0J
0L
1F
0E
0I
11
0M
0K
0N
1R
1P
0W
0S
0P
1]
0[
0Z
0Y
0D
08
00
0$
0T
0V
1U
1X
0]
0?
1=
1<
1;
0C
0B
1A
1:
0+
1)
1(
1'
0/
0.
1-
1&
1?
1+
#460000
b1100 !
b1100 "
1#
b1101 !
b1101 "
1H
1Q
1J
1E
1I
01
1M
1K
1W
1S
1Z
1D
18
10
1$
1T
1^
1]
0Z
0<
1C
0(
1/
0@
0?
1<
0,
0+
1(
#470000
b101 !
b101 "
0#
0Q
0E
0I
11
0K
0S
0W
0^
0]
1[
08
0D
0$
00
1@
1?
0=
1,
1+
0)
#480000
b100 !
b100 "
0H
0J
01
0M
0T
0[
0C
0/
1=
1)
#490000
b0 !
b0 "
b10 !
b10 "
b1010 !
b1010 "
1#
b1011 !
b1011 "
1H
1G
0O
1Q
1J
1L
0F
1E
1I
11
1M
1K
1N
0R
1W
1S
1Z
1D
18
10
1$
1T
1V
0U
1[
1Y
0<
1C
1B
0A
0(
1/
1.
0-
0X
0=
0;
0:
0)
0'
0&
#500000
b1111 !
b1111 "
b1101 !
b1101 "
b1100 !
b1100 "
0H
0G
1O
0J
0L
1F
01
0M
0K
0N
1R
1P
0P
0T
0V
1U
0[
0Y
0C
0B
1A
0/
0.
1-
1X
1=
1;
1:
1)
1'
1&
#510000
b100 !
b100 "
0#
b0 !
b0 "
b10 !
b10 "
b11 !
b11 "
1H
1G
0O
0Q
1J
1L
0F
0E
0I
11
1M
1N
0R
0W
0S
0Z
0D
08
00
0$
1T
1V
0U
1]
1<
1C
1B
0A
1(
1/
1.
0-
0?
0+
#520000
b1011 !
b1011 "
1#
b1111 !
b1111 "
1O
1Q
1F
1E
1I
01
1R
1P
1K
1S
1W
0]
1[
1Z
1Y
18
1D
1$
10
1U
0X
1]
1\
0Z
0Y
1?
0=
0<
0;
1A
0:
1+
0)
0(
0'
1-
0&
1X
0?
0>
1<
1;
1:
0+
0*
1(
1'
1&
#530000
b1101 !
b1101 "
b101 !
b101 "
0#
b1 !
b1 "
0G
0O
0Q
0L
0F
0E
0I
11
0N
0R
0P
0K
0S
0W
0[
08
0D
0$
00
0V
0U
0]
1Y
1=
0B
0A
1)
0.
0-
1?
0;
1+
0'
#540000
b0 !
b0 "
b10 !
b10 "
b1010 !
b1010 "
1#
0H
1G
1Q
0J
1L
1E
1I
01
0M
1N
1W
1S
0\
1Z
1D
18
10
1$
0T
1V
1]
0Y
1>
0<
0C
1B
1*
0(
0/
1.
0?
1;
0+
1'
#550000
b1000 !
b1000 "
b0 !
b0 "
0#
0G
0Q
0L
0E
0I
11
0N
0S
0W
1^
0]
1[
08
0D
0$
00
0V
0^
0[
0Z
0@
1?
0=
0B
0,
1+
0)
0.
0X
1@
1=
1<
0:
1,
1)
1(
0&
#560000
b100 !
b100 "
1O
1F
01
1R
1U
1A
1-
1X
1:
1&
#570000
b110 !
b110 "
b1110 !
b1110 "
1#
1G
1Q
1L
1E
1I
11
1N
1S
1W
1P
1Z
18
1D
1$
10
1V
1^
0Z
1Y
0<
1B
0(
1.
0@
1<
0;
0,
1(
0'
#580000
b1111 !
b1111 "
b1101 !
b1101 "
1H
0G
1J
0L
01
1M
1K
0N
0P
1T
0V
1]
0Y
1C
0B
1/
0.
0?
1;
0+
1'
#590000
b1001 !
b1001 "
0O
0F
11
0R
0U
0^
0]
1Z
1Y
0A
0-
1@
1?
0<
0;
1,
1+
0(
0'
#600000
b1 !
b1 "
0#
b0 !
b0 "
0H
0Q
0J
0E
0I
01
0M
0K
0W
0S
1\
0Z
0D
08
00
0$
0T
0\
0Y
0>
1<
0C
0*
1(
0/
0X
1>
1;
0:
1*
1'
0&
#610000
b10 !
b10 "
1G
1L
11
1N
1V
1^
1[
1Z
1B
1.
1X
0@
0=
0<
1:
0,
0)
0(
1&
#630000
b110 !
b110 "
b1110 !
b1110 "
1#
1O
1Q
1F
1E
1I
01
1R
1P
1S
1W
0^
1]
0[
18
1D
1$
10
1U
1^
0]
0Z
1Y
1@
0?
1=
1A
1,
0+
1)
1-
0@
1?
1<
0;
0,
1+
1(
0'
#640000
b1111 !
b1111 "
1H
1J
11
1M
1K
1T
0^
1]
1\
1[
0Y
1C
1/
1@
0?
0>
0=
1;
1,
0+
0*
0)
1'
#650000
b111 !
b111 "
0#
b110 !
b110 "
0H
0Q
0J
0E
0I
01
0M
0K
0W
0S
0[
0D
08
00
0$
0T
1=
0C
1)
0/
0X
0:
0&
#660000
b1110 !
b1110 "
1#
b1111 !
b1111 "
1H
1Q
1J
1E
1I
11
1M
1K
1W
1S
1^
0]
0\
1Y
1D
18
10
1$
1T
1X
0^
1]
1\
1[
0Y
0@
1?
1>
0;
1C
1:
0,
1+
1*
0'
1/
1&
1@
0?
0>
0=
1;
1,
0+
0*
0)
1'
#680000
b111 !
b111 "
0#
b110 !
b110 "
0H
0Q
0J
0E
0I
01
0M
0K
0W
0S
0[
0D
08
00
0$
0T
1=
0C
1)
0/
0X
0:
0&
#690000
b100 !
b100 "
b1100 !
b1100 "
1#
0G
1Q
0L
1E
1I
11
0N
1S
1W
0P
1^
0]
0\
1Y
18
1D
1$
10
0V
1X
0^
1Z
0Y
0@
1?
1>
0;
0B
1:
0,
1+
1*
0'
0.
1&
1@
0<
1;
1,
0(
1'
#700000
b1000 !
b1000 "
b1001 !
b1001 "
b1 !
b1 "
0#
1H
0O
0Q
1J
0F
0E
0I
01
1M
0R
0W
0S
0Z
0D
08
00
0$
1T
0U
1\
1Y
1<
1C
0A
1(
1/
0-
0>
0;
0*
0'
#710000
b11 !
b11 "
b10 !
b10 "
b1010 !
b1010 "
1#
0H
1G
1Q
0J
1L
1E
1I
11
0M
1N
1W
1S
0\
1Z
1D
18
10
1$
0T
1V
1]
0Y
1>
0<
0C
1B
1*
0(
0/
1.
0?
1;
0+
1'
#720000
b1000 !
b1000 "
b0 !
b0 "
0#
0G
0Q
0L
0E
0I
01
0N
0S
0W
1^
0]
1[
08
0D
0$
00
0V
0^
0[
0Z
0@
1?
0=
0B
0,
1+
0)
0.
0X
1@
1=
1<
0:
1,
1)
1(
0&
#730000
b100 !
b100 "
b101 !
b101 "
b111 !
b111 "
b1111 !
b1111 "
1#
1H
1G
1O
1Q
1J
1L
1F
1E
1I
11
1M
1K
1N
1R
1W
1S
1P
1^
1[
1Z
1Y
1D
18
10
1$
1T
1V
1U
0^
1]
1\
0Z
0Y
0@
0=
0<
0;
1C
1B
1A
0,
0)
0(
0'
1/
1.
1-
1X
1@
0?
0>
1<
1;
1:
1,
0+
0*
1(
1'
1&
#740000
b1011 !
b1011 "
b1001 !
b1001 "
0G
0O
0L
0F
01
0N
0R
0P
0V
0U
0]
0\
0[
1Z
1Y
0B
0A
0.
0-
1?
1>
1=
0<
0;
1+
1*
1)
0(
0'
#750000
b1 !
b1 "
0#
b101 !
b101 "
1O
0Q
1F
0E
0I
11
1R
0K
0S
0W
1\
0Z
08
0D
0$
00
1U
0\
1[
0Y
0>
1<
1A
0*
1(
1-
1>
0=
1;
1*
0)
1'
#760000
b100 !
b100 "
0H
0J
01
0M
0T
0[
0C
0/
1=
1)
#770000
b110 !
b110 "
b1110 !
b1110 "
1#
b1010 !
b1010 "
b1011 !
b1011 "
1H
1G
0O
1Q
1J
1L
0F
1E
1I
11
1M
1K
1N
0R
1W
1S
1Z
1D
18
10
1$
1T
1V
0U
1[
1Y
0<
1C
1B
0A
0(
1/
1.
0-
0X
0=
0;
0:
0)
0'
0&
#780000
b1001 !
b1001 "
b1 !
b1 "
0#
0G
0Q
0L
0E
0I
01
0N
0K
0S
0W
1]
0[
0Z
0Y
08
0D
0$
00
0V
1X
0]
1\
1Y
0?
1=
1<
1;
0B
1:
0+
1)
1(
1'
0.
1&
1?
0>
0;
1+
0*
0'
#790000
b101 !
b101 "
b111 !
b111 "
b1111 !
b1111 "
1#
1G
1O
1Q
1L
1F
1E
1I
11
1N
1R
1K
1S
1W
1P
0\
1Z
18
1D
1$
10
1V
1U
1]
1\
1[
0Z
0Y
1>
0<
1B
1A
1*
0(
1.
1-
0?
0>
0=
1<
1;
0+
0*
0)
1(
1'
#800000
b1110 !
b1110 "
b110 !
b110 "
0#
0H
0Q
0J
0E
0I
01
0M
0K
0W
0S
0[
0D
08
00
0$
0T
1=
0C
1)
0/
0X
0:
0&
#810000
b10 !
b10 "
0O
0F
11
0R
0P
0U
1^
0]
0\
1[
1Z
0A
0-
1X
0@
1?
1>
0=
0<
1:
0,
1+
1*
0)
0(
1&
#820000
b11 !
b11 "
1H
1J
01
1M
1T
0^
1]
0[
0Z
1C
1/
1@
0?
1=
1<
1,
0+
1)
1(
#830000
b1011 !
b1011 "
1#
b1111 !
b1111 "
1O
1Q
1F
1E
1I
11
1R
1P
1K
1S
1W
0]
1[
1Z
1Y
18
1D
1$
10
1U
0X
1]
1\
0Z
0Y
1?
0=
0<
0;
1A
0:
1+
0)
0(
0'
1-
0&
1X
0?
0>
1<
1;
1:
0+
0*
1(
1'
1&
#840000
b1011 !
b1011 "
0O
0F
01
0R
0P
0U
0]
0\
1Z
1Y
0A
0-
0X
1?
1>
0<
0;
0:
1+
1*
0(
0'
0&
#850000
b11 !
b11 "
0#
0Q
0E
0I
11
0K
0S
0W
1]
0[
0Z
0Y
08
0D
0$
00
1X
0?
1=
1<
1;
1:
0+
1)
1(
1'
1&
#860000
b1 !
b1 "
0G
0L
01
0N
0V
0]
1\
1Y
0B
0.
1?
0>
0;
1+
0*
0'
#870000
b0 !
b0 "
b100 !
b100 "
b1100 !
b1100 "
1#
b1110 !
b1110 "
0H
1G
1O
1Q
0J
1L
1F
1E
1I
11
0M
1N
1R
1W
1S
1P
0\
1Z
1D
18
10
1$
0T
1V
1U
1^
0Z
1>
0<
0C
1B
1A
1*
0(
0/
1.
1-
0@
1<
0,
1(
#880000
b1111 !
b1111 "
1H
1J
01
1M
1K
1T
0^
1]
1\
1[
0Y
1C
1/
1@
0?
0>
0=
1;
1,
0+
0*
0)
1'
#890000
b1011 !
b1011 "
b11 !
b11 "
0#
b1 !
b1 "
0G
0O
0Q
0L
0F
0E
0I
11
0N
0R
0P
0K
0S
0W
0[
08
0D
0$
00
0V
0U
0]
1Y
1=
0B
0A
1)
0.
0-
1?
0;
1+
0'
#900000
b1001 !
b1001 "
1#
b1011 !
b1011 "
1G
1Q
1L
1E
1I
01
1N
1K
1S
1W
0\
1Z
18
1D
1$
10
1V
1[
1>
0<
1B
1*
0(
1.
0X
0=
0:
0)
0&
#910000
b1010 !
b1010 "
b1110 !
b1110 "
0H
1O
0J
1F
11
0M
0K
1R
1P
0T
1U
1^
0[
0Z
0C
1A
0/
1-
1X
0@
1=
1<
1:
0,
1)
1(
1&
#920000
b110 !
b110 "
0#
b10 !
b10 "
0O
0Q
0F
0E
0I
01
0R
0P
0S
0W
0^
1]
1\
0Y
08
0D
0$
00
0U
0X
1^
0]
0\
1[
1Z
1@
0?
0>
1;
0A
0:
1,
0+
0*
1'
0-
0&
1X
0@
1?
1>
0=
0<
1:
0,
1+
1*
0)
0(
1&
#930000
b1010 !
b1010 "
1#
b1110 !
b1110 "
1O
1Q
1F
1E
1I
11
1R
1P
1S
1W
0^
1]
0[
18
1D
1$
10
1U
1^
0]
0Z
1Y
1@
0?
1=
1A
1,
0+
1)
1-
0@
1?
1<
0;
0,
1+
1(
0'
#940000
b1100 !
b1100 "
b1101 !
b1101 "
b1001 !
b1001 "
1H
0G
0O
1J
0L
0F
01
1M
1K
0N
0R
0P
1T
0V
0U
0^
1Z
1C
0B
0A
1/
0.
0-
1@
0<
1,
0(
#950000
b1011 !
b1011 "
b1010 !
b1010 "
0H
1G
0J
1L
11
0M
0K
1N
0T
1V
1]
0Y
0C
1B
0/
1.
0?
1;
0+
1'
#960000
b10 !
b10 "
0#
b0 !
b0 "
b1 !
b1 "
1H
0G
0Q
1J
0L
0E
0I
01
1M
0N
0W
0S
1^
0]
1[
0D
08
00
0$
1T
0V
0^
1\
0[
0Z
1Y
0@
1?
0=
1C
0B
0,
1+
0)
1/
0.
1@
0>
1=
1<
0;
1,
0*
1)
1(
0'
#970000
b101 !
b101 "
1O
1F
11
1R
1U
0\
1[
0Y
1A
1-
1>
0=
1;
1*
0)
1'
#980000
b111 !
b111 "
b11 !
b11 "
1G
0O
1L
0F
01
1N
0R
1V
0U
1]
0[
1B
0A
1.
0-
0?
1=
0+
1)
#990000
b1011 !
b1011 "
1#
b1010 !
b1010 "
b1000 !
b1000 "
b1100 !
b1100 "
0H
0G
1O
1Q
0J
0L
1F
1E
1I
11
0M
0N
1R
1P
1W
1S
0P
0]
1[
1Z
1Y
1D
18
10
1$
0T
0V
1U
0X
0[
0Y
1?
0=
0<
0;
0C
0B
1A
0:
1+
0)
0(
0'
0/
0.
1-
0&
1X
1=
1;
1:
1)
1'
1&
